<?xml version="1.0" encoding="utf-8"?>
<!-- Generator: Adobe Illustrator 18.0.0, SVG Export Plug-In . SVG Version: 6.00 Build 0)  -->
<!DOCTYPE svg PUBLIC "-//W3C//DTD SVG 1.1//EN" "http://www.w3.org/Graphics/SVG/1.1/DTD/svg11.dtd">
<svg version="1.1" id="Layer_1" xmlns="http://www.w3.org/2000/svg" xmlns:xlink="http://www.w3.org/1999/xlink" x="0px" y="0px"
	 viewBox="0 0 128.6 113.1" enable-background="new 0 0 128.6 113.1" xml:space="preserve">
<g>
	<path stroke="#FFFFFF" stroke-width="1.5" stroke-miterlimit="10" d="M126.4,53.9c-1-1-2.3-1.6-3.7-1.6h-0.4
		c1.9-3.2,2.9-6.9,2.9-10.7c0-8.6-5.1-16.3-12.9-19.6c-0.2-11.7-9.7-21.1-21.4-21.1c-11.7,0-21.3,9.4-21.5,21.1
		c-0.4-0.1-0.9-0.2-1.3-0.2c-1.9,0-3.7,0.9-4.8,2.5l-0.5,0.8c-0.4,0.6-1.3,0.8-2,0.5L60,25.1c-1.7-0.8-3.8-0.7-5.4,0.2
		c-1.7,1-2.7,2.7-2.9,4.6l-0.1,0.9c0,0.3-0.2,0.8-0.4,1.3c-0.5-0.2-0.9-0.7-0.9-1.3l-0.1-0.9c-0.2-1.8-1.1-3.3-2.5-4.2l6.7-9.6
		c1.3-1.9,1.8-4.1,1.4-6.4c-0.4-2.3-1.6-4.2-3.5-5.6c-3.9-2.7-9.2-1.8-12,2.1L28.1,23.7c-0.4,0.6-0.7,1.2-1,1.9
		c-0.2,0-0.4,0-0.6-0.1l-0.8-0.4c-1.7-0.8-3.8-0.7-5.4,0.2c-1.7,1-2.7,2.7-2.9,4.6l-0.1,0.9c-0.1,0.8-0.7,1.4-1.4,1.4l-0.9,0.1
		c-1.9,0.2-3.6,1.3-4.6,2.9c-1,1.7-1,3.7-0.2,5.4l0.4,0.8c0.3,0.7,0.1,1.5-0.5,2L9.2,44c-1.6,1.1-2.5,2.9-2.5,4.8
		c0,1.3,0.4,2.5,1.2,3.5h-2c-1.4,0-2.7,0.6-3.7,1.6c-1,1-1.5,2.4-1.4,3.9C2,76.5,14,85.9,31.5,94.3c1.9,0.9,3.6,2.5,4.5,4.4
		c1,1.9,0.8,4.2-0.4,6.3c-0.9,1.5-1,3.4-0.1,4.9s2.5,2.5,4.3,2.5h48.9c1.8,0,3.4-0.9,4.2-2.5c0.9-1.6,0.9-3.4-0.1-5
		c-1.2-2-1.4-4.4-0.4-6.2c1-1.9,2.6-3.4,4.6-4.4c17.5-8.4,29.5-17.8,30.7-36.6C127.9,56.3,127.4,54.9,126.4,53.9L126.4,53.9z
		 M120.9,41.5c0,3.9-1.3,7.7-3.8,10.7h-11.2v-8.6c0-1.2-1-2.1-2.1-2.1c-1.2,0-2.1,1-2.1,2.1v8.6H94c0.2-0.2,0.3-0.5,0.5-0.7
		c0,0,0,0,0,0c0.2-0.4,0.3-0.8,0.4-1.2c0-0.1,0.1-0.2,0.1-0.3c0.1-0.4,0.1-0.8,0.1-1.2c0-1.9-0.9-3.7-2.5-4.8l-0.5-0.4
		c0.2,0,0.3,0,0.5-0.1c0.3,0,0.5,0,0.8-0.1c0.4-0.1,0.9-0.1,1.3-0.2c0.2-0.1,0.5-0.1,0.7-0.1c0.5-0.1,0.9-0.2,1.3-0.3
		c0.2-0.1,0.4-0.1,0.6-0.2c0.6-0.2,1.2-0.4,1.8-0.7c0.2-0.1,0.3-0.1,0.5-0.2c0.4-0.2,0.9-0.4,1.3-0.6c0.2-0.1,0.5-0.2,0.7-0.4
		c0.3-0.2,0.6-0.4,1-0.6c0.2-0.2,0.5-0.3,0.7-0.5c0.3-0.2,0.6-0.4,0.8-0.6c0.2-0.2,0.5-0.4,0.7-0.5c0.3-0.2,0.5-0.5,0.8-0.7
		c0.2-0.2,0.4-0.4,0.7-0.6c0.2-0.2,0.5-0.5,0.7-0.8c0.4-0.5,0.8-1,1.2-1.5c0.1-0.2,0.3-0.4,0.4-0.5c0.2-0.3,0.5-0.7,0.7-1
		c0.1-0.2,0.2-0.4,0.3-0.5c0.2-0.4,0.4-0.8,0.6-1.1c0.1-0.2,0.2-0.3,0.2-0.5c0.2-0.4,0.4-0.8,0.6-1.3c0-0.1,0.1-0.2,0.1-0.3
		c0.4-1,0.7-2.1,0.9-3.2C117.4,29.4,120.9,35.2,120.9,41.5L120.9,41.5z M90.9,5c9.5,0,17.2,7.7,17.2,17.2c0,0.3,0,0.6,0,1
		c0,0,0,0,0,0c-0.1,2.3-0.7,4.4-1.6,6.3l0,0.1c-0.2,0.5-0.4,0.9-0.7,1.3c0,0.1-0.1,0.1-0.1,0.2c-0.2,0.4-0.5,0.8-0.7,1.1
		c-0.1,0.1-0.1,0.2-0.2,0.2c-0.3,0.3-0.5,0.6-0.8,1c-0.1,0.1-0.2,0.2-0.3,0.3c-0.3,0.3-0.5,0.6-0.8,0.8c-0.1,0.1-0.2,0.2-0.3,0.3
		c-0.3,0.2-0.5,0.5-0.8,0.7c-0.1,0.1-0.3,0.2-0.4,0.3c-0.3,0.2-0.5,0.4-0.8,0.6c-0.2,0.1-0.3,0.2-0.5,0.3c-0.3,0.2-0.5,0.3-0.8,0.5
		c-0.2,0.1-0.4,0.2-0.6,0.3c-0.3,0.1-0.5,0.3-0.8,0.4c-0.2,0.1-0.4,0.2-0.6,0.3c-0.3,0.1-0.6,0.2-0.8,0.3c-0.2,0.1-0.5,0.2-0.7,0.2
		c-0.3,0.1-0.5,0.1-0.8,0.2C94.5,39,94.3,39,94,39.1c-0.3,0.1-0.5,0.1-0.8,0.1c-0.3,0-0.6,0.1-0.8,0.1c-0.1,0-0.1,0-0.2,0
		c0,0,0-0.1,0-0.1c0.1-0.4,0.1-0.8,0.1-1.2c0-0.1,0-0.2,0-0.4c0-0.3-0.1-0.6-0.1-0.9c0-0.1-0.1-0.2-0.1-0.4
		c-0.1-0.4-0.3-0.8-0.5-1.2c-1-1.6-2.7-2.7-4.6-2.9l-0.9-0.1c-0.6,0-1-0.4-1.3-0.9l4.6-4.6c0.8-0.8,0.8-2.2,0-3
		c-0.8-0.8-2.2-0.8-3,0l-3.1,3.1c-0.5-0.6-1-1.1-1.6-1.5c-0.4-0.3-0.9-0.4-1.4-0.6c-0.2-0.1-0.3-0.1-0.5-0.1c-0.3-0.1-0.6-0.1-1-0.1
		c0,0-0.1,0-0.1,0c-0.3,0-0.5,0.1-0.7,0.1c-0.2,0-0.3,0-0.5,0.1c-0.4,0.1-0.9,0.2-1.3,0.4l-0.8,0.4c-0.2,0.1-0.4,0.1-0.7,0.1
		c0,0,0,0,0,0c-0.2,0-0.4-0.1-0.7-0.2c-0.2-1.1-0.3-2.2-0.3-3.2C73.7,12.7,81.4,5,90.9,5L90.9,5z M55.8,31.2l0.1-0.9
		c0.1-0.5,0.3-1,0.8-1.2c0.5-0.3,1-0.3,1.5-0.1l0.9,0.4c2.6,1.2,5.6,0.4,7.3-2l0.5-0.8c0.6-0.9,2-0.8,2.6,0l0.5,0.8
		c1.1,1.6,2.8,2.4,4.6,2.5h0.1c0.3,0,0.5,0,0.8,0c0.1,0,0.2,0,0.4-0.1c0.2,0,0.4-0.1,0.5-0.1c0.3-0.1,0.6-0.2,0.9-0.3L78,29
		c0.5-0.2,1-0.2,1.5,0.1c0.5,0.3,0.7,0.7,0.8,1.2l0.1,0.9c0.3,2.8,2.5,5.1,5.3,5.3l0.9,0.1c0.5,0,1,0.3,1.2,0.8
		c0.3,0.5,0.3,1,0.1,1.4l-0.4,0.9c0,0,0,0.1,0,0.1c-0.8,1.7-0.6,3.7,0.3,5.3c0,0,0,0,0,0.1c0.1,0.2,0.2,0.4,0.4,0.6
		c0.1,0.1,0.2,0.2,0.2,0.3c0.1,0.1,0.2,0.2,0.3,0.4c0.2,0.2,0.5,0.4,0.7,0.6l0.8,0.5c0.4,0.3,0.7,0.8,0.7,1.3c0,0.5-0.3,1-0.7,1.3
		l-0.8,0.5c0,0,0,0,0,0c-0.3,0.2-0.5,0.4-0.8,0.7c-0.1,0.1-0.2,0.2-0.3,0.3c-0.1,0.2-0.3,0.3-0.4,0.5c0,0.1-0.1,0.1-0.1,0.2H59.7
		c0.2-0.2,0.3-0.5,0.5-0.7c0,0,0,0,0,0c0.2-0.4,0.3-0.8,0.4-1.2c0-0.1,0.1-0.2,0.1-0.3c0.1-0.4,0.1-0.8,0.2-1.2
		c0-0.3-0.1-0.5-0.1-0.8c0-0.2,0-0.4-0.1-0.6c-0.2-0.6-0.5-1.2-0.8-1.8C59.5,45,59,44.4,58.4,44l-0.8-0.5c-0.6-0.4-0.8-1.3-0.5-2
		l0.4-0.8c0.2-0.4,0.3-0.8,0.4-1.3c0-0.1,0-0.3,0-0.4c0-0.3,0.1-0.6,0.1-0.9c0-0.2,0-0.3-0.1-0.5c0-0.3-0.1-0.6-0.1-0.8
		c-0.1-0.2-0.1-0.3-0.2-0.5c-0.1-0.1-0.1-0.3-0.1-0.4c0-0.1-0.1-0.1-0.1-0.2c-0.1-0.1-0.1-0.2-0.1-0.3c-0.1-0.2-0.3-0.4-0.4-0.5
		c-0.1-0.2-0.2-0.3-0.3-0.5c-0.3-0.3-0.6-0.5-0.9-0.8c-0.1-0.1-0.2-0.2-0.3-0.2C55.6,32.6,55.8,31.9,55.8,31.2L55.8,31.2z M43.9,8.6
		c1.4-1.9,4-2.4,6-1c0.9,0.7,1.6,1.6,1.7,2.8c0.2,1.1-0.1,2.3-0.7,3.2l-8.4,11.9l-4,5.7c-0.7,0.9-1.6,1.6-2.8,1.8
		c-1.1,0.2-2.3-0.1-3.2-0.7c0,0,0,0,0,0c-0.3-0.2-0.6-0.5-0.8-0.8c-0.1-0.1-0.1-0.1-0.2-0.2c-0.2-0.3-0.4-0.6-0.5-0.9c0,0,0,0,0-0.1
		c-0.1-0.3-0.2-0.7-0.2-1.1c0-0.1,0-0.2,0-0.3c0-0.4,0-0.7,0.1-1.1c0.1-0.6,0.3-1.1,0.7-1.6L43.9,8.6z M12.4,50.6l-0.8-0.5
		c-0.4-0.3-0.7-0.8-0.7-1.3c0-0.5,0.2-1,0.7-1.3l0.8-0.5c2.3-1.6,3.1-4.7,1.9-7.3L14,38.8c-0.2-0.5-0.2-1,0.1-1.5
		c0.3-0.5,0.7-0.7,1.2-0.8l0.9-0.1c2.8-0.3,5.1-2.5,5.3-5.3l0.1-0.9c0-0.5,0.3-1,0.8-1.2c0.5-0.3,1-0.3,1.5-0.1l0.8,0.4
		c0.6,0.3,1.3,0.5,1.9,0.5c0,0,0,0.1,0,0.1c0,0,0,0.1,0,0.1c0,0.3,0.1,0.5,0.2,0.7c0.1,0.3,0.1,0.6,0.2,0.8c0.1,0.3,0.3,0.6,0.4,0.9
		c0.1,0.2,0.2,0.4,0.3,0.6c0.2,0.3,0.5,0.6,0.7,1c0.1,0.1,0.2,0.3,0.3,0.4c0.4,0.4,0.8,0.8,1.3,1.1c0.4,0.3,0.9,0.5,1.3,0.8
		c0.1,0.1,0.3,0.1,0.4,0.2c0.3,0.1,0.7,0.2,1,0.3c0.2,0,0.3,0.1,0.5,0.1c0.4,0.1,0.7,0.1,1.1,0.1c0.1,0,0.3,0,0.4,0c0,0,0.1,0,0.1,0
		c0.5,0,1,0,1.5-0.1c2.3-0.4,4.2-1.6,5.6-3.5l3.2-4.5c0.4,0.2,0.6,0.6,0.7,1.2l0.1,0.9c0.3,2.8,2.5,5.1,5.3,5.3l0.9,0.1
		c0.2,0,0.4,0.1,0.6,0.2c0.1,0,0.2,0.1,0.2,0.1c0.1,0.1,0.2,0.2,0.3,0.3c0.1,0.1,0.1,0.1,0.2,0.2c0.1,0.2,0.2,0.4,0.2,0.6
		c0,0,0,0,0,0c0,0.2,0,0.5-0.1,0.7l-0.4,0.8c-0.4,1-0.6,2-0.5,3c0,0,0,0,0,0c0,0.3,0.1,0.6,0.2,0.9c0.3,1.3,1.1,2.5,2.3,3.3l0.5,0.4
		l0.2,0.2c0.4,0.3,0.7,0.8,0.7,1.3c0,0.3-0.1,0.5-0.2,0.7c0,0.1-0.1,0.1-0.1,0.2c-0.1,0.1-0.2,0.3-0.3,0.4l0,0l-0.7,0.5
		c-0.3,0.2-0.6,0.5-0.8,0.7c-0.1,0.1-0.1,0.2-0.2,0.2c-0.2,0.2-0.3,0.4-0.5,0.6c0,0-0.1,0.1-0.1,0.1H14C13.6,51.6,13,51,12.4,50.6
		L12.4,50.6z M95.2,90.4c-2.8,1.3-5.1,3.6-6.5,6.3c-1.6,3.2-1.4,7.2,0.6,10.5c0.1,0.2,0.1,0.5,0,0.6c-0.1,0.1-0.2,0.3-0.5,0.3H39.8
		c-0.3,0-0.4-0.2-0.5-0.3c-0.1-0.1-0.1-0.3,0-0.6c2-3.3,2.2-7.3,0.5-10.4c-1.4-2.7-3.7-4.9-6.5-6.3C16.7,82.5,6.2,74.2,5,57.4
		c0-0.3,0.1-0.5,0.2-0.6c0.1-0.1,0.3-0.3,0.6-0.3h116.9c0.3,0,0.5,0.1,0.6,0.3c0.1,0.1,0.2,0.3,0.2,0.6
		C122.4,74.2,111.8,82.5,95.2,90.4L95.2,90.4z M95.2,90.4"/>
	<path stroke="#FFFFFF" stroke-width="1.5" stroke-miterlimit="10" d="M80.2,93H61.5c-1.2,0-2.1,1-2.1,2.1c0,1.2,1,2.1,2.1,2.1h18.7
		c1.2,0,2.1-1,2.1-2.1C82.3,94,81.3,93,80.2,93L80.2,93z M80.2,93"/>
	<path stroke="#FFFFFF" stroke-width="1.5" stroke-miterlimit="10" d="M48,97.3h7.3c1.2,0,2.1-1,2.1-2.1c0-1.2-1-2.1-2.1-2.1H48
		c-1.2,0-2.1,1-2.1,2.1C45.8,96.4,46.8,97.3,48,97.3L48,97.3z M48,97.3"/>
	<path stroke="#FFFFFF" stroke-width="1.5" stroke-miterlimit="10" d="M80.2,99.5H48c-1.2,0-2.1,1-2.1,2.1c0,1.2,1,2.1,2.1,2.1h32.2
		c1.2,0,2.1-1,2.1-2.1C82.3,100.4,81.3,99.5,80.2,99.5L80.2,99.5z M80.2,99.5"/>
	<path stroke="#FFFFFF" stroke-width="1.5" stroke-miterlimit="10" d="M86.3,20.7c0.4,0.4,1,0.6,1.5,0.6c0.6,0,1.1-0.2,1.5-0.6
		c0.8-0.8,0.8-2.2,0-3l-6.1-6.1c-0.8-0.8-2.2-0.8-3,0c-0.8,0.8-0.8,2.2,0,3L86.3,20.7z M86.3,20.7"/>
	<path stroke="#FFFFFF" stroke-width="1.5" stroke-miterlimit="10" d="M98.5,32.8c0.4,0.4,1,0.6,1.5,0.6c0.6,0,1.1-0.2,1.5-0.6
		c0.8-0.8,0.8-2.2,0-3l-6.1-6.1c-0.8-0.8-2.2-0.8-3,0c-0.8,0.8-0.8,2.2,0,3L98.5,32.8z M98.5,32.8"/>
	<path stroke="#FFFFFF" stroke-width="1.5" stroke-miterlimit="10" d="M93.9,21.3c0.6,0,1.1-0.2,1.5-0.6l6.1-6.1
		c0.8-0.8,0.8-2.2,0-3c-0.8-0.8-2.2-0.8-3,0l-6.1,6.1c-0.8,0.8-0.8,2.2,0,3C92.8,21.1,93.4,21.3,93.9,21.3L93.9,21.3z M93.9,21.3"/>
	<path stroke="#FFFFFF" stroke-width="1.5" stroke-miterlimit="10" d="M105.9,39.4c0,1.2,1,2.1,2.1,2.1h8.6c1.2,0,2.1-1,2.1-2.1
		c0-1.2-1-2.1-2.1-2.1h-8.6C106.9,37.2,105.9,38.2,105.9,39.4L105.9,39.4z M105.9,39.4"/>
	<path stroke="#FFFFFF" stroke-width="1.5" stroke-miterlimit="10" d="M66.2,40.5c0.5,0,1.1-0.2,1.5-0.6l3.2-3.2
		c0.8-0.8,0.8-2.2,0-3c-0.8-0.8-2.2-0.8-3,0l-3.2,3.2c-0.8,0.8-0.8,2.2,0,3C65.1,40.2,65.7,40.5,66.2,40.5L66.2,40.5z M66.2,40.5"/>
	<path stroke="#FFFFFF" stroke-width="1.5" stroke-miterlimit="10" d="M76.5,45.2c0.4,0.4,1,0.6,1.5,0.6c0.5,0,1.1-0.2,1.5-0.6
		c0.8-0.8,0.8-2.2,0-3L77.4,40c-0.8-0.8-2.2-0.8-3,0c-0.8,0.8-0.8,2.2,0,3L76.5,45.2z M76.5,45.2"/>
	<path stroke="#FFFFFF" stroke-width="1.5" stroke-miterlimit="10" d="M67.9,44.3l-2.1,2.1c-0.8,0.8-0.8,2.2,0,3
		c0.4,0.4,1,0.6,1.5,0.6c0.5,0,1.1-0.2,1.5-0.6l2.1-2.1c0.8-0.8,0.8-2.2,0-3C70.1,43.5,68.7,43.5,67.9,44.3L67.9,44.3z M67.9,44.3"
		/>
</g>
</svg>
