<?xml version="1.0" encoding="utf-8"?>
<!-- Generator: Adobe Illustrator 18.0.0, SVG Export Plug-In . SVG Version: 6.00 Build 0)  -->
<!DOCTYPE svg PUBLIC "-//W3C//DTD SVG 1.1//EN" "http://www.w3.org/Graphics/SVG/1.1/DTD/svg11.dtd">
<svg version="1.1" id="Layer_1" xmlns="http://www.w3.org/2000/svg" xmlns:xlink="http://www.w3.org/1999/xlink" x="0px" y="0px"
	 viewBox="0 0 114.7 114.7" enable-background="new 0 0 114.7 114.7" xml:space="preserve">
<g id="XMLID_2680_">
	<g id="XMLID_2771_">
		<defs>
			<rect id="XMLID_2772_" x="-102.6" y="-257.5" width="204.9" height="204.9"/>
		</defs>
		<clipPath id="XMLID_26_">
			<use xlink:href="#XMLID_2772_"  overflow="visible"/>
		</clipPath>
		<g clip-path="url(#XMLID_26_)">
			
				<image overflow="visible" width="425" height="535" id="XMLID_2773_" xlink:href="4C2F42BC.png"  transform="matrix(0.5042 0 0 0.5042 -107.3147 -264.2754)">
			</image>
		</g>
	</g>
</g>
<g>
	<path stroke="#FFFFFF" stroke-width="0.8" stroke-miterlimit="10" d="M64.7,0.4c-2.8,0-5.3,1-7.3,2.6c-2-1.6-4.6-2.6-7.3-2.6
		c-6.4,0-11.7,5.2-11.7,11.7c0,2.8,1,5.4,2.7,7.4l0,0c0.2,0.2,0.5,0.5,0.7,0.8l0,0l0,0L56,35.6c0.3,0.4,0.8,0.6,1.3,0.6
		c0.5,0,1-0.2,1.3-0.6l14.1-15.2c0.3-0.3,0.5-0.5,0.8-0.9l0,0l0,0l0,0h0c1.7-2,2.7-4.6,2.7-7.4C76.3,5.6,71.1,0.4,64.7,0.4z
		 M57.3,31.7L44.5,17.9l0,0l0,0l0,0c-0.2-0.2-0.4-0.4-0.6-0.6C42.7,15.8,42,14,42,12.1c0-2.2,0.9-4.2,2.4-5.7
		C45.9,5,47.8,4.1,50,4.1c2.4,0,4.5,1,5.9,2.7l0,0l0.1,0.1c0.1,0.1,0.3,0.2,0.4,0.3l0.1,0c0.2,0.1,0.4,0.1,0.6,0.2l0.1,0
		c0.2,0,0.4,0,0.6-0.1l0.1,0c0.2-0.1,0.4-0.2,0.6-0.3l0,0l0,0l0.1-0.1l0,0c1.4-1.6,3.6-2.6,5.9-2.6c2.2,0,4.2,0.9,5.7,2.3
		c1.5,1.5,2.3,3.4,2.4,5.7c0,1.9-0.7,3.7-1.9,5.1l0,0c-0.1,0.2-0.3,0.4-0.6,0.6l0,0l0,0L57.3,31.7z"/>
	<path stroke="#FFFFFF" stroke-width="0.8" stroke-miterlimit="10" d="M1.6,106.6l19.2,7.6c0.9,0.4,2-0.1,2.4-1c0.4-0.9-0.1-2-1-2.4
		l-7.8-3.1L20,93.3c1.1,0,2.2-0.3,3.2-0.8c1.6-0.8,3.1-1.9,4.7-3.3c1.6-1.4,3.1-3,4.7-4.7C37,79.4,40.8,73.7,44,67.7
		c0.1-0.1,0.2-0.3,0.2-0.5c1.3-2.6,2.5-5.2,3.6-7.8l3.9-9.9c0.4-0.9-0.1-2-1-2.4l-24.9-9.9c-0.9-0.4-2,0.1-2.4,1l-3.9,9.9
		c-3.6,9.1-5.8,18.9-6,28.7c0,0.7,0,1.4,0,2.1c0,3.1,0.2,6,0.8,8.4c0.3,1.2,0.7,2.3,1.3,3.3c0.3,0.4,0.6,0.9,1,1.2l-5.7,14.4
		l-7.9-3.1c-0.9-0.4-2,0.1-2.4,1C0.2,105.1,0.6,106.2,1.6,106.6z M29.8,82c-1.9,2.2-3.9,4.2-5.7,5.5c-0.9,0.7-1.7,1.2-2.5,1.6
		c-0.7,0.3-1.3,0.5-1.7,0.5c-0.2,0-0.3,0-0.5-0.1c-0.2-0.1-0.5-0.3-0.8-0.8c-0.5-0.7-0.9-2.1-1.2-3.8c-0.3-1.7-0.4-3.8-0.4-5.9
		c0-0.6,0-1.3,0-2c0.1-3.8,0.5-7.6,1.2-11.4c2.2,0.9,4.6,1.3,7,1.3c1.2,0,2.4-0.1,3.6-0.3l0,0l1.5-0.3c1-0.2,1.9-0.3,2.9-0.3
		c2.3,0,4.5,0.5,6.6,1.5C37.1,72.7,33.7,77.6,29.8,82z M22.9,49.5l3.2-8.2l21.5,8.5l-3.2,8.2c-0.8,2.1-1.7,4.1-2.7,6.1
		c-2.6-1.2-5.4-1.9-8.3-1.9c-1.2,0-2.4,0.1-3.6,0.3l0,0L28.3,63c-1,0.2-2,0.3-2.9,0.3c-2.2,0-4.3-0.5-6.3-1.3
		C20,57.7,21.3,53.6,22.9,49.5z"/>
	<path stroke="#FFFFFF" stroke-width="0.8" stroke-miterlimit="10" d="M111.8,103.2l-7.9,3.1l-5.7-14.4c0.4-0.4,0.7-0.8,1-1.2
		c0.9-1.5,1.4-3.2,1.7-5.2c0.3-2,0.4-4.2,0.4-6.5c0-0.7,0-1.4,0-2.1c-0.3-9.9-2.4-19.6-6-28.7l-3.9-9.9c-0.4-0.9-1.4-1.4-2.4-1
		L64,47.2c-0.4,0.2-0.8,0.5-1,1c-0.2,0.4-0.2,1,0,1.4l3.9,9.9c1.1,2.7,2.3,5.3,3.6,7.8c0.1,0.2,0.1,0.3,0.2,0.5
		c3.1,6,7,11.7,11.5,16.7c2,2.3,4.1,4.4,6.2,6c1,0.8,2.1,1.5,3.1,2c1,0.5,2.1,0.8,3.2,0.8l5.7,14.4l-7.8,3.1c-0.9,0.4-1.4,1.4-1,2.4
		c0.4,0.9,1.4,1.4,2.4,1l19.2-7.6c0.9-0.4,1.4-1.4,1-2.4C113.8,103.2,112.7,102.8,111.8,103.2z M67.1,49.9l21.5-8.5l3.2,8.2
		c1.6,4,2.9,8.2,3.8,12.4c-2,0.9-4.1,1.3-6.3,1.3c-1,0-2-0.1-2.9-0.3l-1.5-0.3l0,0c-1.2-0.2-2.4-0.3-3.6-0.3c-2.9,0-5.7,0.6-8.3,1.9
		c-1-2-1.9-4.1-2.7-6.1L67.1,49.9z M89.3,86.4c-1.4-1.2-2.9-2.8-4.3-4.4c-4-4.4-7.4-9.3-10.2-14.5c2.1-0.9,4.3-1.5,6.6-1.5
		c1,0,2,0.1,2.9,0.3l1.5,0.3l0,0c1.2,0.2,2.4,0.3,3.6,0.3c2.4,0,4.8-0.4,7-1.3c0.7,3.8,1.1,7.6,1.2,11.4c0,0.7,0,1.3,0,2
		c0,2.9-0.2,5.6-0.7,7.5c-0.2,1-0.5,1.7-0.9,2.2c-0.3,0.5-0.6,0.7-0.8,0.8c-0.1,0-0.3,0.1-0.5,0.1c-0.4,0-1-0.1-1.7-0.5
		C92,88.6,90.7,87.7,89.3,86.4z"/>
</g>
</svg>
