<?xml version="1.0" encoding="utf-8"?>
<!-- Generator: Adobe Illustrator 18.0.0, SVG Export Plug-In . SVG Version: 6.00 Build 0)  -->
<!DOCTYPE svg PUBLIC "-//W3C//DTD SVG 1.1//EN" "http://www.w3.org/Graphics/SVG/1.1/DTD/svg11.dtd">
<svg version="1.1" id="Layer_1" xmlns="http://www.w3.org/2000/svg" xmlns:xlink="http://www.w3.org/1999/xlink" x="0px" y="0px"
	 viewBox="0 0 69.3 116.5" enable-background="new 0 0 69.3 116.5" xml:space="preserve">
<path fill="none" stroke="#000000" stroke-width="3.4947" stroke-miterlimit="10" d="M42.4,7.3l-5.8,35.1l24.7,1.1h0.8
	c2,0.3,3.8,1.6,4.7,3.4c0.9,1.8,0.9,4,0,5.8l-31,59.5c-1.2,2.4-4.1,3.3-6.4,2.1c-1.9-0.9-2.9-3-2.6-5L32.6,74L7.9,72.9H7.1
	c-2-0.3-3.7-1.6-4.7-3.4c-0.9-1.8-0.9-4,0-5.8L33.4,4.3c1.3-2.3,4.2-3.2,6.5-2C41.7,3.3,42.7,5.3,42.4,7.3L42.4,7.3z"/>
</svg>
